{
  "host": {
    "port": "3200"
  },
  "mongodb": {
    "host": "mongodb://localhost:27017/",
    "db_name": "zameer_test",
    "credentials": {
      "username": "",
      "password": ""
    }
  },
  "redis": {
    "host": "localhost",
    "port": 6379
  },
  "session": {
    "secret": "*&secretkeyhere&#"
  },
  "mailer": {
    "options": {
      "service": "sendgrid",
      "auth": {
        "user": "AhmedHassan",
        "pass": "AhmedHassan1",
        "host": "smtp.sendgrid.net",
        "port": 465,
        "secure": true
      }
    },
    "fromAddress": "info@labourchoice.com"
  },
  "resetPassCodeLength": 4,
  "verificationCodeLength": 4,
  "confirmationCodeLength": 4,
  "verifyAcctCodeExpiryMinutes": 3600,
  "forgetPassCodeExpiryMinutes": 3600,
  "confirmAcctCodeExpiryMinutes": 3600,
  "resetPassCodeExpiryMinutes": 3600,
  "postedJobApplicantsIntervalInMinutes": 5,
  "aws": {
    "s3": {
      "secretAccessKey": "KPQm1oGgvESlfy51iwnJc8V21Y7568mHb4xUqjzs",
      "accessKeyId": "AKIAJQICHPGSP3KG52VA",
      "region": "eu-central-1",
      "bucket": "raft-3",
      "productDirectory": "products/1000X1000",
      "productResizeDirectory": "products/100X100",
      "categoryDirectory": "categories",
      "subCategoryDirectory": "subCategories",
      "profileImageDirectory": "profileImages/1000X1000",
      "profileImageDirectoryResize": "profileImages/100X100"
    }
  },
  "sns" : {
    "access" : {
      "secretAccessKey": "KPQm1oGgvESlfy51iwnJc8V21Y7568mHb4xUqjzs",
      "accessKeyId": "AKIAJQICHPGSP3KG52VA",
      "region": "eu-central-1",
      "gcm": {
        "key": "AAAAy6T2xCc:APA91bGC7pyZ_KK1hgEaMlsWyzZwLlTkvF41r5QwAdTLVliGYao9nxOJ5NlTk8qZoVeZC2XhRrtDhJk5mks8mdE-181_B0mhxArcEPpQ_rXQ7yFGUbggLf_fqnv3IqQHNzYhpDoPsQWm"
      }
    }
  },
  "apn": {
    "key": "/pems/GetFuelDevPush.pem",
    "cert": "/pems/aps_devcert.pem",
    "_cert": "/pems/aps_development.cer",
    "env": "APNS_SANDBOX"
  },
  "platFormApplicationArn": {
    "gcm": "arn:aws:sns:eu-central-1:191708687681:app/GCM/ANDROID_FCM_RAFT",
    "apn_user": "arn:aws:sns:eu-central-1:191708687681:app/APNS_SANDBOX/IOS_DEVELOPMENT_RAFT"
  },
  "twilio": {
    "account_sid": "AC028115fcdfb5b4b76a1e43008738ce2c",
    "auth_token": "ab3a93c06b05ee16a26f00af600ca471",
    "phone_number": "+61437882674"
  },
  "brainTree": {
    "environment": "Sandbox",
    "merchantId": "c8m8q73c468f98w9",
    "publicKey": "m8c7px45g2qbpyz9",
    "privateKey": "c3d5c1aa54f095154868c97645ab33f5"
  },
  "googleMapsAPI": "AIzaSyB7_qOlzpbC4e9IGe90W8FZu3bi8ur0dBQ",
  "stripe": {
    "publishableKey": "pk_test_JaAoOUNzZ1rPTSgraDLVZlOs",
    "secretKey": "sk_test_mz5MXurz74YILqWsUXQK1dLg"
  }
}
