{
  "addressTypes":[
    "home",
    "work",
    "other"
  ],
  "userTypes": [
    "USER",
    "LABOUR"
  ],
  "labourTypes": [
    "GENERAL LABOUR",
    "SKILLED LABOUR"
  ],
  "deviceTypes": [
    "WEB",
    "IPHONE",
    "ANDROID"
  ],
  "maxDistance": 50000,
  "maxLaboursLimit": 1,
  "jobStatus": [
    "Completed",
    "In-progress",
    "Finished",
    "Open",
    "Closed",
    "Canceled",
    "Accepted"
  ],
  "subMerchantStatuses": [
    "pending",
    "active",
    "suspended"
  ],
  "messageTypes": [
    "text",
    "file",
    "image"
  ]
}