{
  "9200": {
    "msg": {
      "EN": "Please enter Vehicle number."
    }
  },
  "9201": {
    "msg": {
      "EN": "Please enter rider address."
    }
  },
  "9202": {
    "msg": {
      "EN": "Please enter vehicle type."
    }
  },
  "9203": {
    "msg": {
      "EN": "Please enter rider name."
    }
  },
  "9204": {
    "msg": {
      "EN": "Rider Id is required."
    }
  },
  "9205": {
    "msg": {
      "EN": "Rider not found"
    }
  },
  "9206": {
    "msg": {
      "EN": "Company with same name already exist."
    }
  }
}