{
  "1200": {
    "msg": {
      "EN": "Please enter valid label."
    }
  },
  "1201": {
    "msg": {
      "EN": "There is no Promotion."
    }
  },
  "1202": {
    "msg": {
      "EN": "Promotion id is required."
    }
  },
  "1203": {
    "msg": {
      "EN": "Label is required."
    }
  },
  "1204": {
    "msg": {
      "EN": "image is required."
    }
  },
  "1205": {
    "msg": {
      "EN": "discountPercentage is required."
    }
  },
  "1206": {
    "msg": {
      "EN": "Product already exist in another promotion."
    }
  },
  "1207": {
    "msg": {
      "EN": "Product is discounted already."
    }
  },
  "1208": {
    "msg": {
      "EN": "Promotion is expired."
    }
  },
  "1209": {
    "msg": {
      "EN": "Promotion id is required."
    }
  },
  "1210": {
    "msg": {
      "EN": "Promotion id is required."
    }
  },
  "1211": {
    "msg": {
      "EN": "Promotion is not updated"
    }
  },
  "1212": {
    "msg": {
      "EN": "Promotion label already exist"
    }
  },
  "1213": {
    "msg": {
      "EN": "Date range is incorrect"
    }
  },
  "1214": {
    "msg": {
      "EN": "End Date must be grater than start Date"
    }
  },
  "1215": {
    "msg": {
      "EN": "Discounted Percentage must be less than 100"
    }
  },
    "1216": {
      "msg": {
        "EN": "Already Exist."
      }
  },
  "1217": {
    "msg": {
      "EN": "Start Date must be less than End Date."
    }
  }
}

